<?xml version="1.0" ?>

<robot name="abb_irb2400" xmlns:xacro="http://ros.org/wiki/xacro">
  <xacro:include filename="$(find lhtcp_detection_gazebo)/urdf/irb2400_goal_hoop_macro.xacro"/>	
  <xacro:goal_hoop prefix=""/>

  <!-- Fix robot to Gazebo world -->
  <link name="world"/>
  <joint name="world-base_link-fixed" type="fixed">
    <parent link="world"/>
    <child link="base_link"/>
  </joint>
</robot>
